4 Data Manipulation with dplyr (Part 1) – CS506: Data Wrangling and Management
…
# Flights on January 1st
jan1 <- filter(flights, month == 1, day == 1)

# Flights with arrival delay more than 2 hours
arr_delay <- filter(flights, arr_delay > 120)

4.5 Selecting columns: select()

Use select() to pick a subset of columns.

# Select specific columns
select(flights, year, month, day, dep_time, arr_time)

# A tibble: 336,776 × 5
    year month   day dep_time arr_time
   <int> <int> <int>    <int>    <int>
 1  2013     1     1      517      830
 2  2013     1     1      533      850
 3  2013     1     1      542      923
 4  2013     1     1      544     1004
 5  2013     1     1      554      812
 6  2013     1     1      554      740
 7  2013     1     1      555      913
 8  2013     1     1      557      709
 9  2013     1     1      557      838
10  2013     1     1      558      753
# ℹ 336,766 more rows

# Drop columns with minus
select(flights, -year, -month, -day)

# A tibble: 336,776 × 16
   dep_time sched_dep_time dep_delay arr_time sched_arr_time arr_delay carrier
      <int>          <int>     <dbl>    <int>          <int>     <dbl> <chr>  
 1      517            515         2      830            819        11 UA     
 2      533            529         4      850            830        20 UA     
 3      542            540         2      923            850        33 AA     
 4      544            545        -1     1004           1022       -18 B6     
 5      554            600        -6      812            837       -25 DL     
 6      554            558        -4      740            728        12 UA     
 7      555            600        -5      913            854        19 B6     
 8      557            600        -3      709            723       -14 EV     
 9      557            600        -3      838            846        -8 B6     
10      558            600        -2      753            745         8 AA     
# ℹ 336,766 more rows
# ℹ 9 more variables: flight <int>, tailnum <chr>, origin <chr>, dest <chr>,
#   air_time <dbl>, distance <dbl>, hour <dbl>, minute <dbl>, time_hour <dttm>
…
# Compute speed in miles per hour
flights <- mutate(flights, speed = distance / air_time * 60)

# Create multiple new columns
flights <- mutate(flights,
  gain = arr_delay - dep_delay,
  hours = air_time / 60
)

4.7 Sorting Rows: arrange()

# Sort by arrival delay
arrange(flights, arr_delay)

# A tibble: 336,776 × 22
    year month   day dep_time sched_dep_time dep_delay arr_time sched_arr_time
   <int> <int> <int>    <int>          <int>     <dbl>    <int>          <int>
 1  2013     5     7     1715           1729       -14     1944           2110
 2  2013     5    20      719            735       -16      951           1110
 3  2013     5     2     1947           1949        -2     2209           2324
 4  2013     5     6     1826           1830        -4     2045           2200
 5  2013     5     4     1816           1820        -4     2017           2131
 6  2013     5     2     1926           1929        -3     2157           2310
 7  2013     5     6     1753           1755        -2     2004           2115
 8  2013     5     7     2054           2055        -1     2317             28
 9  2013     5    13      657            700        -3      908           1019
10  2013     1     4     1026           1030        -4     1305           1415
# ℹ 336,766 more rows
# ℹ 14 more variables: arr_delay <dbl>, carrier <chr>, flight <int>,
#   tailnum <chr>, origin <chr>, dest <chr>, air_time <dbl>, distance <dbl>,
#   hour <dbl>, minute <dbl>, time_hour <dttm>, speed <dbl>, gain <dbl>,
#   hours <dbl>

# Sort in descending order
arrange(flights, desc(arr_delay))

# A tibble: 336,776 × 22
    year month   day dep_time sched_dep_time dep_delay arr_time sched_arr_time
   <int> <int> <int>    <int>          <int>     <dbl>    <int>          <int>
 1  2013     1     9      641            900      1301     1242           1530
 2  2013     6    15     1432           1935      1137     1607           2120
 3  2013     1    10     1121           1635      1126     1239           1810
 4  2013     9    20     1139           1845      1014     1457           2210
 5  2013     7    22      845           1600      1005     1044           1815
 6  2013     4    10     1100           1900       960     1342           2211
 7  2013     3    17     2321            810       911      135           1020
 8  2013     7    22     2257            759       898      121           1026
 9  2013    12     5      756           1700       896     1058           2020
10  2013     5     3     1133           2055       878     1250           2215
# ℹ 336,766 more rows
# ℹ 14 more variables: arr_delay <dbl>, carrier <chr>, flight <int>,
#   tailnum <chr>, origin <chr>, dest <chr>, air_time <dbl>, distance <dbl>,
#   hour <dbl>, minute <dbl>, time_hour <dttm>, speed <dbl>, gain <dbl>,
#   hours <dbl>
…
Filter all flights that departed in July and had a departure delay > 60 minutes.

Select only carrier, flight, and dep_delay, and sort by longest delay first.

Create a new column gain defined as arr_delay - dep_delay, and sort by biggest gain.

Chain together at least 3 dplyr verbs using %>% or |>.

# 1
july_delays <- filter(flights, month == 7, dep_delay > 60)

# 2
select(july_delays, carrier, flight, dep_delay) |> arrange(desc(dep_delay))

# A tibble: 3,820 × 3
   carrier flight dep_delay
   <chr>    <int>     <dbl>
 1 MQ        3075      1005
 2 DL        2047       898
 3 VX         187       653
 4 VX         411       634
 5 VX          23       629
 6 DL         141       589
 7 AA        1895       580
 8 FL         349       576
 9 EV        5716       536
10 MQ        3075       486
# ℹ 3,810 more rows

# 3
mutate(flights, gain = arr_delay - dep_delay) |> arrange(desc(gain))

# A tibble: 336,776 × 22
    year month   day dep_time sched_dep_time dep_delay arr_time sched_arr_time
   <int> <int> <int>    <int>          <int>     <dbl>    <int>          <int>
 1  2013    11     1      658            700        -2     1329           1015
 2  2013     4    18      558            600        -2     1149            850
 3  2013     8     8     1819           1519       180        5           1820
 4  2013     7    10     1916           1900        16      137           2240
 5  2013     6    27     1608           1525        43     2045           1725
 6  2013     7    22     1606           1615        -9     2056           1831
 7  2013     7     1      811            800        11     1344           1100
 8  2013     7    10     2011           1520       291     2357           1636
 9  2013     7    22     1626           1545        41     2051           1740
10  2013     4    18      655            700        -5     1213            950
# ℹ 336,766 more rows
# ℹ 14 more variables: arr_delay <dbl>, carrier <chr>, flight <int>,
#   tailnum <chr>, origin <chr>, dest <chr>, air_time <dbl>, distance <dbl>,
#   hour <dbl>, minute <dbl>, time_hour <dttm>, speed <dbl>, gain <dbl>,
#   hours <dbl>

# 4
flights %>%
  filter(month == 1, day == 1) %>%
  mutate(speed = distance / air_time * 60) %>%
  arrange(desc(speed))

# A tibble: 842 × 22
    year month   day dep_time sched_dep_time dep_delay arr_time sched_arr_time
   <int> <int> <int>    <int>          <int>     <dbl>    <int>          <int>
 1  2013     1     1      909            810        59     1331           1315
 2  2013     1     1      615            615         0     1039           1100
 3  2013     1     1      820            820         0     1249           1329
 4  2013     1     1     1716           1545        91     2140           2039
 5  2013     1     1      913            918        -5     1346           1416
 6  2013     1     1     2353           2359        -6      418            442
 7  2013     1     1      544            545        -1     1004           1022
 8  2013     1     1     1202           1159         3     1645           1653
 9  2013     1     1      701            700         1     1123           1154
10  2013     1     1      840            845        -5     1311           1350
# ℹ 832 more rows
# ℹ 14 more variables: arr_delay <dbl>, carrier <chr>, flight <int>,
#   tailnum <chr>, origin <chr>, dest <chr>, air_time <dbl>, distance <dbl>,
#   hour <dbl>, minute <dbl>, time_hour <dttm>, speed <dbl>, gain <dbl>,
#   hours <dbl>
…
