5 Data Transformation with dplyr (Part 2) – CS506: Data Wrangling and Management
…
6.0.2 Multiple Summaries

flights |>
  group_by(dest) |>
  summarize(
    count = n(),
    avg_delay = mean(arr_delay, na.rm = TRUE),
    .groups = "drop"
  )

# A tibble: 105 × 3
   dest  count avg_delay
   <chr> <int>     <dbl>
 1 ABQ     254      4.38
 2 ACK     265      4.85
 3 ALB     439     14.4 
 4 ANC       8     -2.5 
 5 ATL   17215     11.3 
 6 AUS    2439      6.02
 7 AVL     275      8.00
 8 BDL     443      7.05
 9 BGR     375      8.03
10 BHM     297     16.9 
# ℹ 95 more rows
…
Which carrier has the highest average arrival delay?

7 2. Grouping with Multiple Variables

You can group by multiple columns at once.

flights |>
  group_by(origin, month) |>
  summarize(
    avg_delay = mean(dep_delay, na.rm = TRUE),
    .groups = "drop_last"
  )

# A tibble: 36 × 3
# Groups:   origin [3]
   origin month avg_delay
   <chr>  <int>     <dbl>
 1 EWR        1     14.9 
 2 EWR        2     13.1 
 3 EWR        3     18.1 
 4 EWR        4     17.4 
 5 EWR        5     15.4 
 6 EWR        6     22.5 
 7 EWR        7     22.0 
 8 EWR        8     13.5 
 9 EWR        9      7.29
10 EWR       10      8.64
# ℹ 26 more rows
…
