11 Strings and Regular Expressions with stringr – CS506: Data Wrangling and Management
…
11.5 In-Class Challenge

Install the babynames package and load the library. Invoke glimpse() to understand the column names.

Use filter() to look at the longest names (those with exactly 15 letters).

Use count() to find the distribution of lengths of names (Hint: use the wt argument).

library(babynames)
babynames |>
  filter(str_length(name) == 15) |>
  count(name, wt = n) |>
  arrange(desc(n))

# A tibble: 34 × 2
   name                n
   <chr>           <int>
 1 Franciscojavier   123
 2 Christopherjohn   118
 3 Johnchristopher   118
 4 Christopherjame   108
 5 Christophermich    52
 6 Ryanchristopher    45
 7 Mariadelosangel    28
 8 Jonathanmichael    25
 9 Christianjoseph    22
10 Christopherjose    22
# ℹ 24 more rows
…
[1] FALSE  TRUE  TRUE  TRUE

str_detect returns a logical vector that is TRUE if the pattern matches an element of the character vector and FALSE if it doesn’t.

str_detect(c("a", "b", "c"), "[aeiou]")

[1]  TRUE FALSE FALSE

This pairs quite well with filter():

babynames |>
  filter(str_detect(name, "x")) |>
  count(name, wt = n, sort = TRUE)

# A tibble: 974 × 2
   name            n
   <chr>       <int>
 1 Alexander  665492
 2 Alexis     399551
 3 Alex       278705
 4 Alexandra  232223
 5 Max        148787
 6 Alexa      123032
 7 Maxine     112261
 8 Alexandria  97679
 9 Maxwell     90486
10 Jaxon       71234
# ℹ 964 more rows
…
